id;CompanyName;code;country;SAPCompanyCode;isInternational
;BMG Rights Management (UK) Limited;BGUK;United Kingdom;3660;Yes
;BMG Rights Management GmbH;BGDE;Germany;4105;Yes
;BMG Rights Management (US) LLC;BMGM;United States;3670;Yes
;Sanctuary Records Group Ltd.                                             ,a BMG Company;SANC;United Kingdom;5368;No
;BMG Rights Management (France) SARL;BGFR;France;3659;Yes
;BMG Rights Administration (Spain) SLU;BGES;Spain;3661;Yes
;BMG Rights Management (Italy) SRL;BGIT;Italy;3681;Yes
;BMG Rights Management (Benelux) B.V.;BGBL;Netherlands;3665;Yes
;BMG Rights Management (Canada) Inc.;BGCA;Canada;5346;Yes
;Mute Records Ltd.                                                        ,a BMG Company;MUTE;United Kingdom;5365;No
;Chrysalis Copyrights Ltd.                                                ,a BMG Company;CHRC;United Kingdom;5218;No
;The Echo Label Limited                                                   ,a BMG Company;ECHO;United Kingdom;5236;No
;Skint Records Limited                                                    ,a BMG Company;SKNT;United Kingdom;5395;No
;BMG Rights Management Scandinavia AB;BGSC;Sweden;5264;Yes
;Infectious Music Ltd.                                                    ,a BMG Company;INFE;United Kingdom;5401;No
;BMG Rights Management US LLC (Countdown Media);CMUS;United States;5331;No
;Union Square Music Limited                                               ,a BMG Company;USM;United Kingdom;5404;No
;Stage Three Music Publishing Limited                                     ,a BMG Company;STUK;United Kingdom;3773;No
;Loaded Records Limited                                                   ,a BMG Company;LOAD;United Kingdom;5396;No
;RAM Records Ltd.;RAM1;United Kingdom;5418;No
;PAL Productions Limited;PALP;United Kingdom;0000;No
;Francis Dreyfus Music SARL                                               ,a BMG Company;DREY;France;5342;No
;Chrysalis Music Holding GmbH                                             ,a BMG company;CHRG;Germany;5252;No
;Boman (Beijing) Cultural Development Co. Ltd.;BGCN;China;5398;Yes
;BMG AM Pty Ltd.;BGOZ;Australia;5425;No
;BMG Rights Management (Australia) Pty Ltd.;BGAU;Australia;5411;Yes
;8ball Music BV;8BAL;Netherlands;5417;No
;Countdown Media Germany;CMDE;Germany;5337;No
;Rise Records;;United States;5412;No
;This is Hit                                                              ,Inc.;;United States;5437;No
;Red Brown Venture                                                        ,LLC;;United States;5441;No
;Best Sound Records;;Italy;5444;No
;Stage Three Music Publishing Limited                                     ,a BMG Company;;United Kingdom;3774;No
;Musicdirector B.V.;;Belgium;5389;Yes
;Union Square Music Limited                                               ,a BMG Company;;United Kingdom;5402;No
;BMG RIGHTS MANAGEMENT GmbH (Corporate);;Germany;4405;No
;BMG Audiovisual Productions;;United States;5429;No
;Altitude Music Limited;;United Kingdom;5430;No
;BMG RIGHTS MANAGEMENT (UK) Limited (Corporate);;United Kingdom;5432;No
;AXS Music ;;France;5443;No
;Cherry Westfield Limited;;United Kingdom;5445;No
;Villeston Limited;;United Kingdom;5446;No
;Audiogram Songs Inc.;;United States;3855;No
;BMG RIGHTS MANAGEMENT SERVICES (UK) LIMITED;;United Kingdom;5219;No
;Chrysalis Holdings Limited;;United Kingdom;5220;No
;Chrysalis Music Limited;;United Kingdom;5221;No
;Air Records Limited;;United Kingdom;5273;No
;G.W. Mills Limited;;United Kingdom;5290;No
;Oxford Street Studios Limited;;United Kingdom;5295;No
;Tom Jones (Enterprises) Limited;;United Kingdom;5306;No
;BMG Production Music                                                     ,Inc.;;United States;5326;No
;R & B Music LLC;;United States;5332;No
;Windswept Music (London) Ltd;;United Kingdom;5334;No
;BMG RIGHTS MANAGEMENT (Europe) GmbH;;Germany;5345;No
;BMG VM Music Limited;;United Kingdom;5358;No
;Union Square Music Songs Limited;;United Kingdom;5405;No
;USM Copyrights Ltd;;United Kingdom;5406;No
;Rock Music Company Limited;;United Kingdom;5409;No
;BMG Rights Management (Hong Kong) Limited;;China;5413;No
;Minder Music Limited;;United Kingdom;5414;No
;Orient Pacific Music Pty Limited;;Australia;5426;No
;Origin Network Pty Limited;;Australia;5427;No
;Gazoline;;France;5434;No
;HEWRATE LIMITED;;United Kingdom;5435;No
;Hornall Brothers ;;United Kingdom;5436;No